F1:R,R,F,F,F,R,R,R,R,F,F,F,R,R,R,S,R,F,F,R,R,R,S,S,F,F,R,R,R,S,S,F,F,R,R,R,S,S,F,F,R,R,S,S,F,F,R,R,R,R,F,F,F,R,R,R,R,F,F,F,R,R
F2:W,W,W,W,W,W,W,R,R,F,F,F,R,R,R,R,F,F,F,R,R,R,R,F,F,F,R,R,R,R,F,F,F,R,R,R,R,F,F,F,R,R,R,R,F,F,F,R,R,R,R,F,F,F,R,R,R,R,F,F,F,R,R
F3:R,R,F,F,F,W,W,R,R,F,F,F,W,W,R,R,F,F,F,W,W,R,R,F,F,F,W,W,R,R,F,F,F,W,W,R,R,F,F,F,W,W,R,R,F,F,F,W,W,R,R,F,F,F,R,W,R,R,F,F,F,R,R
F4:R,R,F,F,F,R,R,R,R,F,F,F,R,R,R,TR,F,F,F,R,R,R,TR,F,F,F,R,R,R,R,F,F,F,S,S,R,R,F,F,F,R,S,R,RT,F,F,F,S,S,R,R,F,F,F,S,S,R,R,F,F,F,R,R
F5:S,S,F,F,F,R,R,S,S,F,F,F,R,R,R,R,F,F,F,R,R,R,R,F,F,F,R,R,R,R,F,F,F,R,R,R,R,F,F,F,R,R,R,R,F,F,F,S,S,R,R,F,F,F,S,S,R,R,F,F,F,R,R
F6:R,S,F,F,F,R,R,S,S,F,F,F,R,R,S,S,F,F,F,TR,TR,S,S,F,F,F,TR,TR,S,S,F,F,F,TR,TR,S,R,F,F,F,TR,TR,R,R,F,F,F,TR,TR,R,R,F,F,F,R,R,R,R,F,F,F,R,R,R,R,F,F,F,RT,R
F7:R,R,F,F,F,R,W,R,S,S,F,F,W,W,R,S,S,F,F,W,W,R,S,S,F,F,W,W,R,S,F,F,F,R,R,R,S,F,F,F,R,R,R,R,F,F,F,R,R,R,R,F,F,F,R,R,R,R,F,F,F,R,R
F8:R,R,F,F,F,R,R,R,R,F,F,F,R,R,R,R,F,F,F,R,R,R,R,F,F,F,TR,R,R,R,F,F,F,TR,R,R,R,F,F,F,TR,R,R,R,F,F,F,TR,R,R,R,F,F,F,R,R,R,R,F,F,F,RT,R
F9:W,W,F,F,F,W,W,W,R,F,F,F,W,W,R,R,F,F,F,R,W,R,R,F,F,F,R,R,R,R,F,F,F,R,R,R,R,F,F,F,R,R,R,R,F,F,F,R,R,R,R,F,F,F,R,R,R,R,F,F,F,R,R
F10:R,R,F,F,F,R,R,R,R,F,F,F,R,R,R,R,F,F,F,R,R,R,R,F,F,F,TR1,TR1,R,R,F,F,F,TR1,TR1,TR,R,F,F,F,R,R,TR,TR,F,F,F,RT1,R,R,R,F,F,F,R,R,R,RT,F,F,F,R,R
F11:R,R,F,F,F,R,R,R,R,F,F,F,R,R,R,R,F,F,F,R,R,R,R,F,F,F,TR,TR,R,R,F,F,F,TR,TR,S,S,F,F,F,TR,TR,S,S,F,F,F,R,R,R,S,F,F,F,R,R,R,S,F,F,F,RT,R
F12:R,R,F,F,F,R,R,R,R,F,F,F,S,S,R,R,F,F,F,S,S,R,R,F,F,F,S,S,R,R,F,F,F,R,R,R,R,F,F,F,R,R,S,R,F,F,F,R,R,S,S,F,F,F,R,R,S,S,F,F,F,R,R
F13:R,R,F,F,F,R,R,R,R,F,F,F,R,R,R,R,F,F,F,R,R,R,R,F,F,F,TR,TR,R,R,F,F,F,TR,TR,R,R,F,F,F,TR,TR,R,R,F,F,F,R,R,R,R,F,F,F,R,R,R,R,F,F,F,RT,R
F14:W,R,F,F,F,R,R,W,W,F,F,F,R,R,W,W,F,F,F,S,S,W,W,F,F,F,S,S,W,W,F,F,F,S,R,W,W,F,F,F,S,S,W,W,F,F,F,S,S,W,R,F,F,F,S,S,W,R,F,F,F,R,S
