G1:R,R,R,S,S,S,S,R,R,R,R,R,S,S,R,G,G,G,G,R,R,R,N,N,G,G,R,R,R,N,N,G,G,R,R,R,G,G,G,G,R,R,R,R,R,R,R,R,R,R,R,R,R,R,R,R,R,R,F,F,F,R,R
G2:R,R,R,R,R,R,R,R,G,G,G,G,G,R,R,G,G,N,N,G,R,R,G,G,N,N,G,R,TR,R,G,G,G,G,S,TR,TR,R,R,R,R,S,R,R,R,R,R,S,S,R,R,R,R,S,S,R,R,RT,F,F,F,R,R
G3:R,R,R,R,R,R,R,R,R,R,R,R,R,R,S,S,G,G,G,R,R,S,S,G,N,N,G,R,R,R,G,N,N,G,R,R,R,G,G,G,R,R,W,W,W,W,W,W,W,R,R,F,F,F,R,R,R,R,F,F,F,R,R
G4:R,R,R,R,R,R,R,W,W,R,S,S,S,S,W,W,G,G,G,S,S,W,W,G,N,N,R,S,W,W,G,N,N,R,R,W,W,R,G,G,R,R,W,W,R,R,R,R,R,R,R,R,R,R,R,R,R,R,F,F,F,R,R
G5:TR,TR,TR,R,R,R,R,TR,TR,TR,R,R,R,R,RT,R,G,G,G,G,R,R,R,G,N,N,G,R,R,S,G,N,N,G,R,R,S,S,G,G,G,R,R,R,S,S,S,R,R,R,R,R,R,R,R,R,R,R,F,F,F,R,R
G6:W,W,W,W,W,W,W,R,R,G,G,G,R,R,S,S,N,N,G,R,R,S,S,N,N,G,S,R,R,S,G,G,R,S,R,R,R,R,S,S,R,R,R,R,R,R,R,R,R,R,R,F,F,F,R,R,R,R,F,F,F,R,R	