Dos Hermanas Open:T2,G1;T1,F1,F8,G3;T2,F4,F7,G4;T3,F14,F10,F7,G5;T1,F8,F2,F13,G6;T2,F5,G1;T1,G2;T3,F3,F9,G6;T3,F12,F6,G2
Glorio's Cup:T1,F10,F3,G4;T1,F9,F7,G2;T3,G3;T1,F1,F8,G5;T2,F14,G1;T2,F7,G2;T1,F6,F3,G1;T3,G3;T3,F3,F12,G6
Trebujena Championship:T3,F2,G1;T2,F13,F12,G6;T3,G3;T2,F6,F5,F11,G3;T1,F8,G6;T2,F4,G2;T1,G4;T2,F7,G1;T1,F12,F3,G2








